{
  "page": 1,
  "total_results": 10000,
  "total_pages": 500,
  "results": [
    {
      "popularity": 559.414,
      "id": 419704,
      "video": false,
      "vote_count": 1843,
      "vote_average": 6,
      "title": "Ad Astra",
      "release_date": "2019-09-17",
      "original_language": "en",
      "original_title": "Ad Astra",
      "genre_ids": [
        878,
        18,
        53,
        12,
        9648
      ],
      "backdrop_path": "/5BwqwxMEjeFtdknRV792Svo0K1v.jpg",
      "adult": false,
      "overview": "The near future, a time when both hope and hardships drive humanity to look to the stars and beyond. While a mysterious phenomenon menaces to destroy life on planet Earth, astronaut Roy McBride undertakes a mission across the immensity of space and its many perils to uncover the truth about a lost expedition that decades before boldly faced emptiness and silence in search of the unknown.",
      "poster_path": "/xBHvZcjRiWyobQ9kxBhO6B2dtRI.jpg"
    },
    {
      "popularity": 263.567,
      "vote_count": 2405,
      "video": false,
      "poster_path": "/db32LaOibwEliAmSL2jjDF6oDdj.jpg",
      "id": 181812,
      "adult": false,
      "backdrop_path": "/jOzrELAzFxtMx2I4uDGHOotdfsS.jpg",
      "original_language": "en",
      "original_title": "Star Wars: The Rise of Skywalker",
      "genre_ids": [
        28,
        12,
        878
      ],
      "title": "Star Wars: The Rise of Skywalker",
      "vote_average": 6.6,
      "overview": "The surviving Resistance faces the First Order once again as the journey of Rey, Finn and Poe Dameron continues. With the power and knowledge of generations behind them, the final battle begins.",
      "release_date": "2019-12-18"
    },
    {
      "popularity": 271.218,
      "vote_count": 7814,
      "video": false,
      "poster_path": "/udDclJoHjfjb8Ekgsd4FDteOkCU.jpg",
      "id": 475557,
      "adult": false,
      "backdrop_path": "/n6bUvigpRFqSwmPp1m2YADdbRBc.jpg",
      "original_language": "en",
      "original_title": "Joker",
      "genre_ids": [
        80,
        18,
        53
      ],
      "title": "Joker",
      "vote_average": 8.3,
      "overview": "During the 1980s, a failed stand-up comedian is driven insane and turns to a life of crime and chaos in Gotham City while becoming an infamous psychopathic crime figure.",
      "release_date": "2019-10-02"
    },
    {
      "popularity": 218.027,
      "vote_count": 1064,
      "video": false,
      "poster_path": "/jyw8VKYEiM1UDzPB7NsisUgBeJ8.jpg",
      "id": 512200,
      "adult": false,
      "backdrop_path": "/zTxHf9iIOCqRbxvl8W5QYKrsMLq.jpg",
      "original_language": "en",
      "original_title": "Jumanji: The Next Level",
      "genre_ids": [
        28,
        12,
        35,
        14
      ],
      "title": "Jumanji: The Next Level",
      "vote_average": 6.7,
      "overview": "As the gang return to Jumanji to rescue one of their own, they discover that nothing is as they expect. The players will have to brave parts unknown and unexplored in order to escape the world’s most dangerous game.",
      "release_date": "2019-12-04"
    },
    {
      "popularity": 198.264,
      "vote_count": 2414,
      "video": false,
      "poster_path": "/7IiTTgloJzvGI1TAYymCfbfl3vT.jpg",
      "id": 496243,
      "adult": false,
      "backdrop_path": "/TU9NIjwzjoKPwQHoHshkFcQUCG.jpg",
      "original_language": "ko",
      "original_title": "기생충",
      "genre_ids": [
        35,
        18,
        53
      ],
      "title": "Parasite",
      "vote_average": 8.6,
      "overview": "All unemployed, Ki-taek's family takes peculiar interest in the wealthy and glamorous Parks for their livelihood until they get entangled in an unexpected incident.",
      "release_date": "2019-05-30"
    },
    {
      "popularity": 147.802,
      "vote_count": 1426,
      "video": false,
      "poster_path": "/vloNTScJ3w7jwNwtNGoG8DbTThv.jpg",
      "id": 420809,
      "adult": false,
      "backdrop_path": "/skvI4rYFrKXS73BJxWGH54Omlvv.jpg",
      "original_language": "en",
      "original_title": "Maleficent: Mistress of Evil",
      "genre_ids": [
        12,
        14,
        10751
      ],
      "title": "Maleficent: Mistress of Evil",
      "vote_average": 7.2,
      "overview": "Maleficent and her goddaughter Aurora begin to question the complex family ties that bind them as they are pulled in different directions by impending nuptials, unexpected allies, and dark new forces at play.",
      "release_date": "2019-10-16"
    },
    {
      "popularity": 190.082,
      "vote_count": 145,
      "video": false,
      "poster_path": "/yJdeWaVXa2se9agI6B4mQunVYkB.jpg",
      "id": 449924,
      "adult": false,
      "backdrop_path": "/ekP6EVxL81lZ4ivcqPsoZ72rY0h.jpg",
      "original_language": "cn",
      "original_title": "葉問4",
      "genre_ids": [
        28,
        18,
        36
      ],
      "title": "Ip Man 4: The Finale",
      "vote_average": 6,
      "overview": "Following the death of his wife, Ip Man travels to San Francisco to ease tensions between the local kung fu masters and his star student, Bruce Lee, while searching for a better future for his son.",
      "release_date": "2019-12-20"
    },
    {
      "popularity": 159.66,
      "vote_count": 207,
      "video": false,
      "poster_path": "/AuGiPiGMYMkSosOJ3BQjDEAiwtO.jpg",
      "id": 530915,
      "adult": false,
      "backdrop_path": "/tUWivz05fcY14K6RzicRm7IHkUD.jpg",
      "original_language": "en",
      "original_title": "1917",
      "genre_ids": [
        18,
        36,
        10752
      ],
      "title": "1917",
      "vote_average": 8,
      "overview": "At the height of the First World War, two young British soldiers, Schofield and Blake are given a seemingly impossible mission. In a race against time, they must cross enemy territory and deliver a message that will stop a deadly attack on hundreds of soldiers—Blake's own brother among them.",
      "release_date": "2019-12-10"
    },
    {
      "popularity": 131.038,
      "vote_count": 1771,
      "video": false,
      "poster_path": "/pjeMs3yqRmFL3giJy4PMXWZTTPa.jpg",
      "id": 330457,
      "adult": false,
      "backdrop_path": "/xJWPZIYOEFIjZpBL7SVBGnzRYXp.jpg",
      "original_language": "en",
      "original_title": "Frozen II",
      "genre_ids": [
        12,
        16,
        10402,
        10751
      ],
      "title": "Frozen II",
      "vote_average": 7,
      "overview": "Elsa, Anna, Kristoff and Olaf head far into the forest to learn the truth about an ancient mystery of their kingdom.",
      "release_date": "2019-11-20"
    },
    {
      "popularity": 123.871,
      "vote_count": 47,
      "video": false,
      "poster_path": "/eU0orGizEpOli4wtN8HtfOOJDlA.jpg",
      "id": 516700,
      "adult": false,
      "backdrop_path": "/mlaX4c2M6usnhXHG5sYJcKVXflA.jpg",
      "original_language": "id",
      "original_title": "Gundala",
      "genre_ids": [
        28,
        80,
        18
      ],
      "title": "Gundala",
      "vote_average": 5.3,
      "overview": "Sancaka has lived on the streets since his parents left him. Living a hard life, Sancaka survives by thinking about his own safety. When the condition of the city gets worse and injustice rages throughout the country, Sancaka must decide whether he continues to live to look after himself or rise to become their oppressed hero.",
      "release_date": "2019-08-29"
    },
    {
      "popularity": 104.551,
      "vote_count": 3946,
      "video": false,
      "poster_path": "/8j58iEBw9pOXFD2L0nt0ZXeHviB.jpg",
      "id": 466272,
      "adult": false,
      "backdrop_path": "/yB2hTgz9CTVYjlMWPSl3LPx5nWj.jpg",
      "original_language": "en",
      "original_title": "Once Upon a Time… in Hollywood",
      "genre_ids": [
        35,
        18,
        53
      ],
      "title": "Once Upon a Time… in Hollywood",
      "vote_average": 7.5,
      "overview": "Los Angeles, 1969. TV star Rick Dalton, a struggling actor specializing in westerns, and stuntman Cliff Booth, his best friend, try to survive in a constantly changing movie industry. Dalton is the neighbor of the young and promising actress and model Sharon Tate, who has just married the prestigious Polish director Roman Polanski…",
      "release_date": "2019-07-25"
    },
    {
      "popularity": 76.663,
      "vote_count": 1120,
      "video": false,
      "poster_path": "/uTALxjQU8e1lhmNjP9nnJ3t2pRU.jpg",
      "id": 453405,
      "adult": false,
      "backdrop_path": "/sfW7GcOuwZFuCxVoU5ULlkiDJ7Q.jpg",
      "original_language": "en",
      "original_title": "Gemini Man",
      "genre_ids": [
        28,
        53
      ],
      "title": "Gemini Man",
      "vote_average": 5.8,
      "overview": "Ageing assassin, Henry Brogen tries to get out of the business but finds himself in the ultimate battle—fighting his own clone who is 25 years younger than him, and at the peak of his abilities.",
      "release_date": "2019-10-02"
    },
    {
      "popularity": 154.403,
      "vote_count": 322,
      "video": false,
      "poster_path": "/mSmiB8XjUnR1GSIljuCPGsk0cwX.jpg",
      "id": 331482,
      "adult": false,
      "backdrop_path": "/3uTxPIdVEXxHpsHOHdJC24QebBV.jpg",
      "original_language": "en",
      "original_title": "Little Women",
      "genre_ids": [
        18,
        10749
      ],
      "title": "Little Women",
      "vote_average": 8.3,
      "overview": "Four sisters come of age in America in the aftermath of the Civil War.",
      "release_date": "2019-12-25"
    },
    {
      "popularity": 93.826,
      "vote_count": 1082,
      "video": false,
      "poster_path": "/dtRbVsUb5O12WWO54SRpiMtHKC0.jpg",
      "id": 338967,
      "adult": false,
      "backdrop_path": "/3ghImmHdp4RnC3UkL6hpLayclnb.jpg",
      "original_language": "en",
      "original_title": "Zombieland: Double Tap",
      "genre_ids": [
        28,
        35,
        27
      ],
      "title": "Zombieland: Double Tap",
      "vote_average": 7,
      "overview": "Columbus, Tallahassee, Wichita, and Little Rock move to the American heartland as they face off against evolved zombies, fellow survivors, and the growing pains of the snarky makeshift family.",
      "release_date": "2019-10-09"
    },
    {
      "popularity": 91.439,
      "vote_count": 66,
      "video": false,
      "poster_path": "/jlHL2BH176JApGiLnNQLQgdjMFd.jpg",
      "id": 443791,
      "adult": false,
      "backdrop_path": "/fYPiQewg7ogbzro2XcCTACSB2KC.jpg",
      "original_language": "en",
      "original_title": "Underwater",
      "genre_ids": [
        27,
        878,
        53
      ],
      "title": "Underwater",
      "vote_average": 5.8,
      "overview": "After an earthquake destroys their underwater station, six researchers must navigate two miles along the dangerous, unknown depths of the ocean floor to make it to safety in a race against time.",
      "release_date": "2020-01-08"
    },
    {
      "popularity": 75.387,
      "vote_count": 1438,
      "video": false,
      "poster_path": "/pThyQovXQrw2m0s9x82twj48Jq4.jpg",
      "id": 546554,
      "adult": false,
      "backdrop_path": "/cjTQSwcsfVdirSFSHNBXRGkxmWa.jpg",
      "original_language": "en",
      "original_title": "Knives Out",
      "genre_ids": [
        35,
        80,
        18,
        9648,
        53
      ],
      "title": "Knives Out",
      "vote_average": 7.8,
      "overview": "When renowned crime novelist Harlan Thrombey is found dead at his estate just after his 85th birthday, the inquisitive and debonair Detective Benoit Blanc is mysteriously enlisted to investigate. From Harlan's dysfunctional family to his devoted staff, Blanc sifts through a web of red herrings and self-serving lies to uncover the truth behind Harlan's untimely death.",
      "release_date": "2019-11-27"
    },
    {
      "popularity": 92.952,
      "vote_count": 329,
      "video": false,
      "poster_path": "/7GsM4mtM0worCtIVeiQt28HieeN.jpg",
      "id": 515001,
      "adult": false,
      "backdrop_path": "/agoBZfL1q5G79SD0npArSlJn8BH.jpg",
      "original_language": "en",
      "original_title": "Jojo Rabbit",
      "genre_ids": [
        35,
        18,
        10752
      ],
      "title": "Jojo Rabbit",
      "vote_average": 7.9,
      "overview": "A World War II satire that follows a lonely German boy whose world view is turned upside down when he discovers his single mother is hiding a young Jewish girl in their attic. Aided only by his idiotic imaginary friend, Adolf Hitler, Jojo must confront his blind nationalism.",
      "release_date": "2019-10-18"
    },
    {
      "popularity": 68.771,
      "vote_count": 370,
      "video": false,
      "poster_path": "/u50NAzMDBxTBP0CwmuUmBUkxW05.jpg",
      "id": 593402,
      "adult": false,
      "backdrop_path": "/5QuRbno7OLgXi9bz5YXKrtn3vFH.jpg",
      "original_language": "it",
      "original_title": "Tolo Tolo",
      "genre_ids": [
        35
      ],
      "title": "Tolo Tolo",
      "vote_average": 6.5,
      "overview": "Checco is a young Apulian entrepreneur dreamer who has opened a sushi restaurant in his Apulia. However, after one month, the restaurant went bankrupt and he chose to emigrate to Africa to escape from debt. Here he adapts to being a waiter in a resort in Kenya, but at the outbreak of a civil war he decides to embark on a stowaway trip on a boat for migrants to Europe and chooses to do it with his African friends. However, he would not like to return to Italy, but rather to go to Liechtenstein where banking secrecy is in force and there is a lower tax burden than in Italy.",
      "release_date": "2020-01-01"
    },
    {
      "popularity": 98.206,
      "vote_count": 1674,
      "video": false,
      "poster_path": "/pZekG6xabTmZxjmYw10wN84Hp8d.jpg",
      "id": 492188,
      "adult": false,
      "backdrop_path": "/nwoDC0IJA47wr3znJgT1kkk64Gy.jpg",
      "original_language": "en",
      "original_title": "Marriage Story",
      "genre_ids": [
        18
      ],
      "title": "Marriage Story",
      "vote_average": 8,
      "overview": "A stage director and an actress struggle through a grueling, coast-to-coast divorce that pushes them to their personal extremes.",
      "release_date": "2019-11-06"
    },
    {
      "popularity": 76.77,
      "vote_count": 79,
      "video": false,
      "poster_path": "/MBiKqTsouYqAACLYNDadsjhhC0.jpg",
      "id": 486589,
      "adult": false,
      "backdrop_path": "/bga3i5jcejBekr2FCGJga1fYCh.jpg",
      "original_language": "en",
      "original_title": "Red Shoes and the Seven Dwarfs",
      "genre_ids": [
        16,
        10749
      ],
      "title": "Red Shoes and the Seven Dwarfs",
      "vote_average": 6.6,
      "overview": "Princes who have been turned into Dwarfs seek the red shoes of a lady in order to break the spell, although it will not be easy.",
      "release_date": "2019-07-25"
    }
  ]
}